Using the assertr package
…
## verification [Pulse > 0] failed! (3 failures)
## 
##     verb redux_fn predicate column index value
## 1 verify       NA Pulse > 0     NA  3311    NA
## 2 verify       NA Pulse > 0     NA  5208    NA
## 3 verify       NA Pulse > 0     NA  5422    NA

## Error: assertr stopped execution

nh %>% filter(Pulse <= 0) %>% select(Pulse)

## # A tibble: 3 x 1
##     Pulse
##     <dbl>
## 1 -0.0387
## 2 -0.0136
## 3 -0.0658

This stops the execution of the summarize function because negative numbers were found. The verify function takes a dataframe and a boolean as its input, while the assert function takes a dataframe, a predicate function, and some number of columns as input. assert uses the select function, which allows us to go through multiple columns at once.

# The within_bounds functions ensures that values are within a specified range. I'll check to make sure Age and BMI are between 0 and 50
#?within_bounds

nh %>%
  assert(within_bounds(0, 50), Age, BMI) %>% 
  summarise(range(Pulse, na.rm= TRUE))

## Column 'Age' violates assertion 'within_bounds(0, 50)' 2972 times
##     verb redux_fn            predicate column index value
## 1 assert       NA within_bounds(0, 50)    Age    11    66
## 2 assert       NA within_bounds(0, 50)    Age    12    58
## 3 assert       NA within_bounds(0, 50)    Age    13    54
## 4 assert       NA within_bounds(0, 50)    Age    15    58
## 5 assert       NA within_bounds(0, 50)    Age    19    60
##   [omitted 2967 rows]
…
Custom Predicates

We are not limited to these four predicates, but we can create our own. You can either create an inline function or a function that you saved earlier and want to use multiple times.

Lets say we have a column that we need to be either 4 characters long or 6 characters long, but nothing else. We could create own function:

char.4.6 <- function(x) if(nchar(x) == 4 | nchar(x) == 6) return(TRUE)

And then we can use it on our data

nh %>% 
  mutate(Gender = as.character(Gender)) %>% 
  assert(char.4.6, Gender)

## # A tibble: 10,000 x 76
##       ID SurveyYr Gender   Age AgeDecade AgeMonths Race1 Race3 Education   
##    <int> <fct>    <chr>  <int> <fct>         <int> <fct> <fct> <fct>       
##  1 51624 2009_10  male      34 " 30-39"        409 White <NA>  High School 
##  2 51624 2009_10  male      34 " 30-39"        409 White <NA>  High School 
##  3 51624 2009_10  male      34 " 30-39"        409 White <NA>  High School 
##  4 51625 2009_10  male       4 " 0-9"           49 Other <NA>  <NA>        
##  5 51630 2009_10  female    49 " 40-49"        596 White <NA>  Some College
##  6 51638 2009_10  male       9 " 0-9"          115 White <NA>  <NA>        
##  7 51646 2009_10  male       8 " 0-9"          101 White <NA>  <NA>        
##  8 51647 2009_10  female    45 " 40-49"        541 White <NA>  College Grad
##  9 51647 2009_10  female    45 " 40-49"        541 White <NA>  College Grad
## 10 51647 2009_10  female    45 " 40-49"        541 White <NA>  College Grad
## # ... with 9,990 more rows, and 67 more variables: MaritalStatus <fct>,
## #   HHIncome <fct>, HHIncomeMid <int>, Poverty <dbl>, HomeRooms <int>,
## #   HomeOwn <fct>, Work <fct>, Weight <dbl>, Length <dbl>, HeadCirc <dbl>,
## #   Height <dbl>, BMI <dbl>, BMICatUnder20yrs <fct>, BMI_WHO <fct>,
## #   Pulse <dbl>, BPSysAve <int>, BPDiaAve <int>, BPSys1 <int>, BPDia1 <int>,
## #   BPSys2 <int>, BPDia2 <int>, BPSys3 <int>, BPDia3 <int>, Testosterone <dbl>,
## #   DirectChol <dbl>, TotChol <dbl>, UrineVol1 <int>, UrineFlow1 <dbl>, ...
…
## # A tibble: 10,000 x 76
##       ID SurveyYr Gender   Age AgeDecade AgeMonths Race1 Race3 Education   
##    <int> <fct>    <fct>  <int> <fct>         <int> <chr> <fct> <fct>       
##  1 51624 2009_10  male      34 " 30-39"        409 White <NA>  High School 
##  2 51624 2009_10  male      34 " 30-39"        409 White <NA>  High School 
##  3 51624 2009_10  male      34 " 30-39"        409 White <NA>  High School 
##  4 51625 2009_10  male       4 " 0-9"           49 Other <NA>  <NA>        
##  5 51630 2009_10  female    49 " 40-49"        596 White <NA>  Some College
##  6 51638 2009_10  male       9 " 0-9"          115 White <NA>  <NA>        
##  7 51646 2009_10  male       8 " 0-9"          101 White <NA>  <NA>        
##  8 51647 2009_10  female    45 " 40-49"        541 White <NA>  College Grad
##  9 51647 2009_10  female    45 " 40-49"        541 White <NA>  College Grad
## 10 51647 2009_10  female    45 " 40-49"        541 White <NA>  College Grad
## # ... with 9,990 more rows, and 67 more variables: MaritalStatus <fct>,
## #   HHIncome <fct>, HHIncomeMid <int>, Poverty <dbl>, HomeRooms <int>,
## #   HomeOwn <fct>, Work <fct>, Weight <dbl>, Length <dbl>, HeadCirc <dbl>,
## #   Height <dbl>, BMI <dbl>, BMICatUnder20yrs <fct>, BMI_WHO <fct>,
## #   Pulse <dbl>, BPSysAve <int>, BPDiaAve <int>, BPSys1 <int>, BPDia1 <int>,
## #   BPSys2 <int>, BPDia2 <int>, BPSys3 <int>, BPDia3 <int>, Testosterone <dbl>,
## #   DirectChol <dbl>, TotChol <dbl>, UrineVol1 <int>, UrineFlow1 <dbl>, ...
…
